{
    "name": "web",
    "default_attributes": {},
    "override_attributes": {},
    "json_class": "Chef::Role",
    "description": "web server role",
    "chef_type": "role",
    "run_list": [
        "recipe[apt]", "recipe[git]", "recipe[subversion]", "recipe[nginx]", "recipe[php-fpm]",
        "recipe[mysql]", "recipe[mysql::server]", "recipe[mysql::client]", "recipe[composer]", "recipe[sqlite]", "recipe[cron]",
        "recipe[app::php54]", "recipe[php]"
    ]
}